{
    "CurrentItemId": "aedf4e32-f7c5-44ab-8e30-9231fa168c3b",
    "WorkflowItems": [
        {
            "Type": "Start",
            "Id": "4e5fcc0e-61a5-42a4-805a-a5e9b72b4128",
            "SystemId": "3dc29ec1-a644-4cc7-8955-7944298c504f",
            "CatalogId": "5379A311-6FA8-4C3E-B465-11791B4AF12D",
            "CatalogName": "System",
            "TypicalId": "52989D9B-8E09-47A7-B224-0A4323AE3B1C",
            "TypicalName": "Start",
            "ActionType": ""
        },
        {
            "Type": "Action",
            "Id": "67fa21ff-328d-4ef7-80ae-361fbb92b064",
            "SystemId": "3dc29ec1-a644-4cc7-8955-7944298c504f",
            "Title": "Input Customer",
            "Description": "Input a new Customer in the System.",
            "CatalogId": "764CFFEF-EC71-4D16-ACF0-EF9F80211C5C",
            "CatalogName": "R18",
            "TypicalId": "52989D9B-8E09-47A7-B224-0A4323AE3B4C",
            "TypicalName": "CUSTOMER",
            "ActionType": "Input"
        },
        {
            "Type": "Action",
            "Id": "913ebd55-0545-4a5f-b383-be2314b92aef",
            "SystemId": "3dc29ec1-a644-4cc7-8955-7944298c504f",
            "Title": "Authorize Customer",
            "Description": "Authorize Customer in the System.",
            "CatalogId": "764CFFEF-EC71-4D16-ACF0-EF9F80211C5C",
            "CatalogName": "R18",
            "TypicalId": "52989D9B-8E09-47A7-B224-0A4323AE3B4C",
            "TypicalName": "CUSTOMER",
            "ActionType": "Authorize",
            "DynamicData": [
                { 
                    "SourceWorkflowItemId": "67fa21ff-328d-4ef7-80ae-361fbb92b064",
                    "SourceAttributeName": "@Id",
                    "TargetAttributeName": "@Id",
                    "FormulaText": ""
                }
            ]
        },
        {
            "Type": "Action",
            "Id": "0aa12420-83ea-4a4d-a70d-e5de3c6c7a83",
            "SystemId": "3dc29ec1-a644-4cc7-8955-7944298c504f",
            "Title": "Check Customer",
            "Description": "Check Customer (See)",
            "CatalogId": "764CFFEF-EC71-4D16-ACF0-EF9F80211C5C",
            "CatalogName": "R18",
            "TypicalId": "52989D9B-8E09-47A7-B224-0A4323AE3B4C",
            "TypicalName": "CUSTOMER",
            "ActionType": "See",
            "DynamicData": [
                { 
                    "SourceWorkflowItemId": "67fa21ff-328d-4ef7-80ae-361fbb92b064",
                    "SourceAttributeName": "@Id",
                    "TargetAttributeName": "@Id",
                    "FormulaText": ""
                }
            ]
        },
        {
            "Type": "Action",
            "Id": "42d704c5-f16f-4b2f-a456-bae060e2da39",
            "SystemId": "3dc29ec1-a644-4cc7-8955-7944298c504f",
            "Title": "Menu: Current Account",
            "Description": "Authorize Customer in the System.",
            "CatalogId": "5379A311-6FA8-4C3E-B465-11791B4AF12D",
            "CatalogName": "System",
            "TypicalId": "A7AC3FE5-2971-4E1E-8B60-9F52F368CA8B",
            "TypicalName": "NavigationInfo",
            "ActionType": "Navigation",
            "Parameters": "User Menu,Account,Open Current Account"
        },
        {
            "Type": "Action",
            "Id": "ec8159d7-27da-4449-9886-29240f29d7c5",
            "SystemId": "3dc29ec1-a644-4cc7-8955-7944298c504f",
            "Title": "Input Account",
            "Description": "Input a new Customer in the System.",
            "CatalogId": "764CFFEF-EC71-4D16-ACF0-EF9F80211C5C",
            "CatalogName": "R18",
            "TypicalId": "6D3F8F11-D1C6-4D24-AF5C-2529A04FF3FF",
            "TypicalName": "ACCOUNT",
            "ActionType": "Input",
            "DynamicData": [
                { 
                    "SourceWorkflowItemId": "67fa21ff-328d-4ef7-80ae-361fbb92b064",
                    "SourceAttributeName": "@Id",
                    "TargetAttributeName": "@Id",
                    "FormulaText": ""
                }
            ]
        },
        {
            "Type": "Action",
            "Id": "aedf4e32-f7c5-44ab-8e30-9231fa168c3b",
            "SystemId": "3dc29ec1-a644-4cc7-8955-7944298c504f",
            "Title": "Authorize Account",
            "Description": "Input a new Customer in the System.",
            "CatalogId": "764CFFEF-EC71-4D16-ACF0-EF9F80211C5C",
            "CatalogName": "R18",
            "TypicalId": "6D3F8F11-D1C6-4D24-AF5C-2529A04FF3FF",
            "TypicalName": "ACCOUNT",
            "ActionType": "Authorize",
            "DynamicData": [
                { 
                    "SourceWorkflowItemId": "ec8159d7-27da-4449-9886-29240f29d7c5",
                    "SourceAttributeName": "@Id",
                    "TargetAttributeName": "@Id",
                    "FormulaText": ""
                }
            ]
        }
    ],
    "WorkflowItemLinks": [
        {
            "Type": "Link",
            "SourceId": "4e5fcc0e-61a5-42a4-805a-a5e9b72b4128",
            "TargetId": "67fa21ff-328d-4ef7-80ae-361fbb92b064"
        },
        {
            "Type": "Link",
            "SourceId": "67fa21ff-328d-4ef7-80ae-361fbb92b064",
            "TargetId": "913ebd55-0545-4a5f-b383-be2314b92aef"
        },
        {
            "Type": "Link",
            "SourceId": "913ebd55-0545-4a5f-b383-be2314b92aef",
            "TargetId": "0aa12420-83ea-4a4d-a70d-e5de3c6c7a83"
        },
        {
            "Type": "Link",
            "SourceId": "0aa12420-83ea-4a4d-a70d-e5de3c6c7a83",
            "TargetId": "42d704c5-f16f-4b2f-a456-bae060e2da39"
        },
        {
            "Type": "Link",
            "SourceId": "42d704c5-f16f-4b2f-a456-bae060e2da39",
            "TargetId": "ec8159d7-27da-4449-9886-29240f29d7c5"
        },
        {
            "Type": "Link",
            "SourceId": "ec8159d7-27da-4449-9886-29240f29d7c5",
            "TargetId": "aedf4e32-f7c5-44ab-8e30-9231fa168c3b"
        }
    ]
}