ID,Title,Summary,Comments,Status,Assignee,Priority,Component,Release Phase,Release Iteration,Type,Severity,Created,Updated,Due Date,Test Case id
1,Cosmetic - text for 1 selected row isn't right,"1. Open Workbench 
2. Select a Suproject 
3. Add new action to queue e.g: *Replace Adapter* 

If the test case has only 1 test step this text is appearing, (1 items) !screenshot-1.png|thumbnail! 

On this case, it should be defined with brackets !image.png|thumbnail! 

",,Closed,Aida Hyseni,Low,WBNCH,,,Software Error,Moderate,1552830691000,1555505491000,1558097491000,
2,The window of the applied queued actions is not being maximized and the details for the action are not shown,"Steps to reproduce: 
-Login in to workbench 
-Put an action on the queue 
-Click apply 
In this screen maximize the window and you will see that inner window with the details is not being shown properly 
!image.png|thumbnail!",,Closed,Aida Hyseni,Low,WBNCH,,,Software Error,Moderate,1552830691000,1555505491000,1558097491000,
3,"Cosmetic: Visualization of automatic calculation, when switching from Simple to Advanced mode, through Workbench","When switching from Simple to Advanced mode for automatic calculation using Workbench, the formula is displayed as Simple. Please, check the document attached. 

Note: this is a cosmetic issue and it does not impact the test case execution, so I am putting the priority of the issue to low.",,Closed,Kujtim Hyseni,Low,WBNCH,,,Software Error,Moderate,1552830691000,1555505491000,1558097491000,
4,Error with ordering while operating with Test Workbench,"While testing with Test Workbench in machine 47 and trying to change the system of a test case with some test steps with Classic Refactoring mode !image-2018-07-02-11-06-34-116.png|thumbnail! 
While testing with Test Workbench we see that the order of the test cases is changed. From the screenshot we can understand how is the order in ATS and how is the order in the Test Workbench !image-2018-07-02-11-07-40-162.png|thumbnail! . The first two steps are shown correctly in the Test Workbench, while in ATS the third step is Enquiry Action: AA.PRODUCT.CATALOG.RESULT while in Test Workbench the third step is Authorise: CURRENT.ACCOUNT,AA. Made another test to see how the changes are affected in ATS after we change the system of the test case. The ID’s of the test steps correspond in ATS and in Test Workbench !image-2018-07-02-11-08-33-094.png|thumbnail! 
The third step in ATS (ID=4162736) correspond with the fifth step in Test Workbench (ID=4162736) !image-2018-07-02-11-09-17-133.png|thumbnail! Changing the system to the whole test case to see the effect that it has in ATS !image-2018-07-02-11-10-05-837.png|thumbnail! !image-2018-07-02-11-10-31-424.png|thumbnail! !image-2018-07-02-11-10-55-955.png|thumbnail! Checking in ATS if the changes are done successfully (The system is changed successfully and the order has not changed) !image-2018-07-02-11-11-36-085.png|thumbnail! Also executed test case to see if there is any problem with the ordering !image-2018-07-02-11-12-54-260.png|thumbnail! Also during execution we see that the order of the test steps is not changed. !image-2018-07-02-11-13-55-852.png|thumbnail!",,Closed,Shpat Ademi,Low,WBNCH,,,Software Error,Moderate,1552830691000,1555505491000,1558097491000,
5,Unable to create new custom layout for reports in RRF,"I tried to create a new custom layout for statistic reports in RRF but it failed. 
The error faced is like below: 
!image.png|thumbnail! 

",,Closed,Viola Zeqollari,Low,VCONN,,,Software Error,Moderate,1552830691000,1555505491000,1558097491000,
6,Merge CS01-463 in Main build,Merge CS01-463 in Main build,,Closed,Shpat Ademi,Low,VCONN,,,Software Error,Moderate,1552830691000,1555505491000,1558097491000,
7,Migration Traceability Report for Last Execution is empty,"Machine 242 - Execution Cycle CYCLE Tracebility 

""Migration Traceability Report for Last Execution"" is empty 


",,Closed,Kujtim Hyseni,Low,VCONN,,,User Error,Moderate,1552830691000,1555505491000,1558097491000,
8,MSProjectAdapter not working,"Tried to export with V-CONN the Project Tasks from ATS to Microsoft Project document in the server 46 and 47, and the tests resulted unsuccessful, the MSProjectAdapter is not working. The same steps are followed to the server 35 and the export is done successfully. (Printscreen of followed steps and results are shown to the attached document)",,Closed,Kujtim Hyseni,Low,VCONN,,,Configuration Error,Moderate,1552830691000,1555505491000,1558097491000,
9,Operand OR with @ID attribute as parameter fails with Server Side Filter Checked,"Machine .242 Release 9.5.0.42769 
Cycle : VCONN DAAS 9.5.0.42769 
Testing OR operand with @ID as filter for selection. 
With Server Side Filter NOT Checked works fine but with Server Side Filter Checked it ignores the second value of the filter. 
Please find attached the details of this case.",,Closed,Harold Sota,Low,VCONN,,,Software Error,Moderate,1552830691000,1555505491000,1558097491000,
10,Simple Filter - Count feature throws Error,!image.png|thumbnail!,,Closed,Harold Sota,Low,VCONN,,,Software Error,Moderate,1552830691000,1555505491000,1558097491000,
11,"Filter with ""Server Side Filter"" is not retrieving the expected data","Machine 242 - Vconn Advance filtering ""DAAS""/Customer test - server side filter 

jobs: Customer_Extraction & Customer_Extraction 2 

Scenario is this one: 

We have *first job* to extract all customers with sector=1001, and the records are = 3233 !image.png|thumbnail! !image.png|thumbnail! 

and the *second job* it is to extract all the customers with Account.officer = 1 and advance filter sector form the previous job !image.png|thumbnail! 

* When the *second job* is executed with Server side Filter !image.png|thumbnail!, the result is like this: !image.png|thumbnail! all the customers with Account.Officer =1 are extracted and advance filter is ignored !image.png|thumbnail! 

* When the *second job* is executed without Server side Filter !image.png|thumbnail!, the result is as expected: !image.png|thumbnail! all the customers with Account.officer = 1 and sector=1001 (advance filter form the previous job) are extracted. 


",,Closed,Harold Sota,Low,VCONN,,,User Error,Moderate,1552830691000,1555505491000,1558097491000,
12,Invalid name in Export Instances module of VConn,"51 machine - VConn Application 

!Vconn Export Instances - Inavlid Name.PNG|thumbnail! 

The name should be Requirements and Test Trees",,Closed,Edmond Shtogu,Low,VCONN,,,Software Error,Moderate,1552830691000,1555505491000,1558097491000,
13,Sagicor V-conn Sql Adapter: Cannot load after transformation to sql table,[~shukri] - please check the details in the customer support issue,,Closed,Shukri Gashi,Low,VCONN,,,Configuration Error,Moderate,1552830691000,1555505491000,1558097491000,
14,Default start date and end date for tasks,"FYI [~mihal.qesko] [~shpat.ademi] [~Andreas] [~rinalda.borici] [~panagiotis.saltaferas] 

After the call will Mihal and Shpat, in order for 360 reports related to tasks to be displayed correctly is is required that the following fields to be fed with the default value (creation date) when the field is set as empty by the user: 

# Planned Start Date 
# Planned End Date 
# Actual Start Date 
# Actual End Date 

This field are found in module ""Project Plan Manager"", under the functionality tasks when creating or modifying a task. Attached some print screens.",,Closed,Arlind Hajdari,Low,VAL,,,Software Error,Moderate,1552830691000,1555505491000,1558097491000,
15,Percentage of defects per status is wrong,"192.168.34.170 vm 
Project_Status_Summary Report 

For Project/Subproject: 360/Test Execution there is one defect per status, so the average for each defect status should be 25%. 
!Project Status Summary.PNG|thumbnail!",,Closed,Mihal Qesko,Low,VAL,,,Software Error,Moderate,1552830691000,1555505491000,1558097491000,
16,Issue on planned count index (Test Execution before Code Freeze template),"[~nertila.sota] fixed this index to distribute the planned test cases to be scripted to months. 
For example if there are 9 planned test cases and the subproject duration is 2 two months, planned count per month is: 4.5 
!planned count.PNG|thumbnail! 

But if subproject duration is less than one month (e.g 3 weeks) or its not defined, the displayed planned count in the report shows 0. 
!2 planned count.PNG|thumbnail! 

[~nertila.sota] In this case the test scripts are not distributed to months, so the planned count per month should be equal with the total planned test cases of subproject.",,Closed,Mihal Qesko,Low,VAL,,,Software Error,Moderate,1552830691000,1555505491000,1558097491000,
17,Missing data from Kayako Upload 47 vm - MSSQL,The uploaded data through self service is not coming in the report SLA_and_Incidents in the 46 vm_oracle DB (empty report),,Closed,Driton Zejnullahu,Low,VAL,,,Software Error,Moderate,1552830691000,1555505491000,1558097491000,
18,Past CSV Uploads not being shown after the new build on 47,"After the install of the new build on 47vm, the past CSV Uploads is empty: !image.png|thumbnail! . Please check.",,Closed,Nestila,Low,VAL,,,Software Error,Trivial,1552830691000,1555505491000,1558097491000,
19,Remove all the unused projects represented in the Validata 360 reports,[~nertila.sota] - please investigate and apply the necessary changes to the database,,Closed,Nertila Sota,Low,VAL,,,Software Error,Moderate,1552830691000,1555505491000,1558097491000,
20,Divine by zero Error in SQL Server View associated to 04.03 Productivity by Role 360 report.,"machine 47 
Validata360 SQL Server 

View: DWH_ROAMBI_COST_BY_ROLE 

Error: Msg 8134, Level 16, State 1, Line 4 
Divide by zero error encountered. 

!CostByRole_View.PNG|thumbnail!",,Closed,Nikos Konstantinidis,Low,VAL,,,Software Error,Moderate,1552830691000,1555505491000,1558097491000,
21,Admin can't delete user,"machine 47 (SQL Server) 

Logged in as admin. 
Created a new user. 
Trying to delete him, encountered conflict with REFFERENCE constraint ""FK_aspnet_Me_UserI_ "" 
!DeleteUserConflict.PNG|thumbnail! 

Admin must not have proper rights through the aspnet_Membership table.",,Closed,Edmond Shtogu,Low,VAL,,,Software Error,Trivial,1552830691000,1555505491000,1558097491000,
22,Raw actions view in Smart Scripting from TE 64 bit,"During the recording of test cases with Smart Test Case Desing tool in TE 64 bit, in the raw actions pane, is created a record for every keyboard key that is pressed for the input. For e.g. if the user inputs “1001” in the Sector text box, the records are created for ( i) 1, (ii) 10, (iii) 100 and (iiii) 1001. 

In TE 32 bit, there is a single record for every text box that is filled during recording. This makes the reading of inputed fields easier. 

Please, check the screenshots attached. 
",,Closed,Shpat Ademi,Low,SSE,,,Software Error,Moderate,1552830691000,1555505491000,1558097491000,
23,Unable to map objects from new screen (mapping can only be done on the first screen opened),"When trying to record the application (created on script librarian) using test engine, I can only capture objects on the first window. 
The correct process (previously working) is to capture whatever you need from a screen !image1.png|thumbnail! (a red frame defines the captured object) , do the mapping, and if you need to open another one e.g by clicking a button, you stop the recording !image2.png|thumbnail! , go to the new page and start it again !image3.png|thumbnail! . The problem now it that the new page is not being recognized !image4.png|thumbnail! . While the recording starts correctly I'm only able to check objects in the previous page and not in the new one !image5.png|thumbnail! 
Execution on IE with multiple screens is working though.",,Closed,Ioanna Papadopoulou,Low,SSE,,,Environmental Issue,Moderate,1552830691000,1555505491000,1558097491000,
24,Load librarian test scripts in TE - Actions of test steps are not visible,"Open VConn and import as application the following test script : [^TCIB MAPPED.xml]. 
Open TE and select General Web Recording mode. 

Import Librarian test scripts from ATS in TE. 
!Load scripts from ATS.PNG|thumbnail! 

Then right click in the level of a test step and select clear test steps. 
!Clear Test steps.PNG|thumbnail! 

Import again test scripts in TE. 
!Imported Test steps.PNG|thumbnail! 

You will be able to see only the names of the imported test steps and not their actions. 

If you switch to playback and execute the test steps, then the actions appear again. 
",,Closed,Nestila,Low,SSE,,,Software Error,Moderate,1552830691000,1555505491000,1558097491000,
25,Can not commit the deal for Negative testing For account,Please see the doc attached .Tested on machine 46,,Closed,Ioanna Papadopoulou,Low,SSE,,,User Error,Moderate,1552830691000,1555505491000,1558097491000,
26,V_Enquiry Update not indicated properly (Cosmetic),"During Smart Test Case design V_Enquiries are captured instantly. 
If a captured V-Enquiry Typical does not exist in the defined Enquiry catalog then the user is presented with an exclamation point (!) and an error window indicating that the typical is not found. 
Then the user creates the Typical from the test data tab. 
If the captured Typical already exists in the catalog but includes different attributes, then the user has to update the Typical in order for it to include the new captured attributes and values. 
In this case the error should be presented in the same way (window and ""!"" indicator). 
However, there seems to be an issue at the moment as, the user is not notified about this mismatch. There is no indicator (!) nor error window. 
Instead, the error and the indicator appear only when the user tries to save the captured steps. 
The user can then updates the Typical and saves the changes. 
However, the indicator (!) remains and is removed only when the case is successfully saved. 

This problem appears to be a low priority cosmetic issue. However it could be a bit confusing and time consuming for a user that has captured lots of V_Enquiry steps and does not know which Typicals need updating or not.",,Closed,Andreas Potagas,Low,SSE,,,User Error,Trivial,1552830691000,1555505491000,1558097491000,
27,Cosmetic error while Smart Scripting TCIB Test Case,"In the test case about TCIB, while recording with TCIB Web Recording, when doing a funds transfer and selecting the account, the smart scripting should record this step as Enquiry Action !image-2018-06-05-10-14-29-782.png|thumbnail! . While when recorded in the Test Engine this step is recorded as a simple action not as ENQUIRY Action !image-2018-06-05-10-16-13-896.png|thumbnail! . This is a cosmetic side because the test case is being executed successfully and the name of the action type doesn't affect it, but regarding the test case it should appear as ENQUIRY Action. Attached you can find the Test Case document about TCIB.",,Closed,Shpat Ademi,Low,SSE,,,User Error,Trivial,1552830691000,1555505491000,1558097491000,
28,Cosmetic error in scheduled synchronization time table,"Connect to 46 server. Run MSW, select T24 Applications. 
Select the following communication method and set. 
Select the following text file which contain typicals. 
Click Schedule Synchronization. 
!MSW.PNG|thumbnail! 
Click Next. 
Select target Catalog and click Next. 
Then Schedule table pops up. 
If you click the drop down list in Date field, it shows correctly a table to select date. 
If you click the drop down list in Time field, it shows wrongly the same table with dates. 
It should be removed or substituted by a timetable. 
!timetable.PNG|thumbnail! 


",,Closed,Aida Hyseni,Low,MSW,,,Software Error,Trivial,1552830691000,1555505491000,1558097491000,
29,Attribute name retriving with MSW not the same as T24,"When we want to retrieve typical AA.FIND.ARRANGEMENT.NAU.AR with MSW name of 2 attribute imported is not the same with the name of attribute in T24 .For this reason lately we are facing some Enquiry action that have post filters that tc failed during execution 
name of attribute in T24 !image-2019-01-18-16-37-09-137.png|thumbnail! 
Name of attribute that we retrieve with MSW !image-2019-01-18-16-38-16-478.png|thumbnail! 
",,Closed,Kujtim Hyseni,Low,MSW,,,Software Error,Severe,1552830691000,1555505491000,1558097491000,
30,Msw application not responding after not selecting any enquiry from t24 exctraction list,"I am testing MSW in VM 46 and when I do not select any enquiry from t24 extraction list the application stops responding !ENQ ISSUE 1 SCREEN.PNG|thumbnail! !ENQ ISSUE 2 SCREEN.PNG|thumbnail! ,this happens only in enquiries .In applications ,versions and aa products this issue does not appear",,Closed,Shpat Ademi,Low,MSW,,,Software Error,Moderate,1552830691000,1555505491000,1558097491000,
31,"MSW's ""Save Selection"" option always saves all Objects instead of selected ones","Noticed in VMs .46 and .242 

Whenever a user selects specific T24 objects and tries to save them in a txt file, in order to use that file as a pre-defined selection for a future synchronization, the saved file ends up having all objects, instead of only the selected ones. 
!SaveSelectionIssue1.JPG|thumbnail! 
!SaveSelectionIssue2.JPG|thumbnail! 
!SaveSelectionIssue3.JPG|thumbnail!",,Closed,Ioanna Papadopoulou,Low,MSW,,,Software Error,Trivial,1552830691000,1555505491000,1558097491000,
32,"""Create main application version for the selected applications"" option issue in vm 192.168.1.242","We were testing the following scenario in machine 192.168.1.242: 

1. Start the synchronization of applications with MSW. 
2. Check the option ""Create main application version for the selected applications"". 
3. Check the option ""Initial Synchronization"". 
4. Select a catalog that is not empty (it has typicals stored inside). 
5. Synchronization stops and displays message ""Catalog is not empty"". 

When we check the VersionDefinition folder, the main versions are created even though the synchronization failed to finish. This behavior is wrong, as the versions should not be created in the folder. 
",,Closed,Driton Zejnullahu,Low,MSW,,,Software Error,Moderate,1552830691000,1555505491000,1558097491000,
33,the attached popup message that appears in case of failed action is not user friendly,"!screenshot-1.png|thumbnail! 
How to steps: 
# create an action ""wait until"" with endless loop. 
# Run execution 
# When the action is in progress and is waiting to finish the loop, then press on STOP button an select yes on ""Are you sure you want to abort the execution? "" 
# after that the attached message appears",,Closed,Natasha Nonevska,Low,COB,,,Software Error,Moderate,1552830691000,1555505491000,1558097491000,
34,On edit action promts to save even if no changes,!image.png|thumbnail!,,Closed,Dijana Beqiri,Low,COB,,,Software Error,Moderate,1552830691000,1555505491000,1558097491000,
35,Encountered exception if telnetcommdef changed and saved while COB tool running,"RefreshEnvironmentsDDL - 
exc message was in the direction of ""...cannot modify a control from diff. thread, or not created yet..""",,Closed,Dijana Beqiri,Low,COB,,,Configuration Error,Severe,1552830691000,1555505491000,1558097491000,
